\relax 
\@writefile{toc}{\contentsline {section}{\numberline {1}Implementation of PCG}{1}\protected@file@percent }
\@writefile{lol}{\contentsline {lstlisting}{\numberline {1}PCG code}{1}\protected@file@percent }
